…
deal_miss = function(x) {
  if (is.numeric(x)) {
    replace(x, is.na(x), mean(x, na.rm = TRUE))
  } else if (is.character(x)) {
    replace(x, is.na(x), "virginica")
  }
}
iris_without_na=map_dfr(iris_with_missing, deal_miss)
iris_without_na
```

    ## # A tibble: 150 x 5
    ##    Sepal.Length Sepal.Width Petal.Length Petal.Width Species  
    ##           <dbl>       <dbl>        <dbl>       <dbl> <chr>    
    ##  1         5.83        3.5          1.4         0.2  setosa   
    ##  2         4.9         3            1.4         0.2  setosa   
    ##  3         4.7         3.2          3.79        1.20 setosa   
    ##  4         4.6         3.1          3.79        0.2  setosa   
    ##  5         5           3.6          1.4         0.2  virginica
    ##  6         5.4         3.07         1.7         0.4  setosa   
    ##  7         5.83        3.4          3.79        0.3  setosa   
    ##  8         5           3.07         1.5         0.2  setosa   
    ##  9         5.83        2.9          1.4         0.2  setosa   
    ## 10         4.9         3.07         1.5         0.1  setosa   
    ## # … with 140 more rows
…
``` r
df=df %>% 
  rename_all(~str_replace_all(., "week_", "")) %>% 
  gather(key = week_day, value = week_value, `1`:`8`) %>% 
  separate(file_name, into=c("group", "subject_id"), sep = "_") %>% 
  mutate(subject_id = gsub(".csv$", "", subject_id)) %>% 
  mutate(group= recode(group, "con"="control", "exp"="experimental"))
df
```

    ## # A tibble: 160 x 4
    ##    group   subject_id week_day week_value
    ##    <chr>   <chr>      <chr>         <dbl>
    ##  1 control 01         1              0.2 
    ##  2 control 02         1              1.13
    ##  3 control 03         1              1.77
    ##  4 control 04         1              1.04
    ##  5 control 05         1              0.47
    ##  6 control 06         1              2.37
    ##  7 control 07         1              0.03
    ##  8 control 08         1             -0.08
    ##  9 control 09         1              0.08
    ## 10 control 10         1              2.14
    ## # … with 150 more rows
…
